"ツイートID","ツイートの固定リンク","ツイート本文","時間","インプレッション","エンゲージメント","エンゲージメント率","リツイート","返信","いいね","ユーザープロフィールクリック","URLクリック数","ハッシュタグクリック","詳細クリック","固定リンクのクリック数","アプリ表示","アプリインストール","フォローしている","ツイートをメール送信","ダイアル式電話","メディアの再生数","メディアのエンゲージメント","プロモのインプレッション","プロモのエンゲージメント","プロモのエンゲージメント率","プロモのリツイート","プロモの返信","プロモのいいね","プロモのユーザープロフィールクリック","プロモのURLクリック数","プロモのハッシュタグクリック","プロモの詳細クリック","プロモの固定リンクのクリック数","プロモのアプリ表示","プロモのアプリインストール","プロモのフォローしている","プロモのツイートをメール送信","プロモのダイアル式電話","プロモのメディアの再生数","プロモのメディアのエンゲージメント"
"1035392753243381761","https://twitter.com/drumato/status/1035392753243381761","取り敢えず次に手を出すのは
･ふつうのLinuxプログラミング
･Docker/Kubernetes 実践コンテナ開発入門
･パーフェクトRails

のどれかに決めた｡
正直Railsはまだ優先度低い｡もっとピュアRubyやりたい｡

シェルプログラミングはLinux理解に一役買うし自動化楽しそう｡
Dockerは興味｡","2018-08-31 05:04 +0000","291.0","3.0","0.010309278350515464","0.0","0.0","1.0","1.0","0.0","0.0","1.0","0.0","0","0","0","0","0","0","0","-","-","-","-","-","-","-","-","-","-","-","-","-","-","-","-","-","-"
"1035371968126574592","https://twitter.com/drumato/status/1035371968126574592","@nokonoko_1203 文章に記載するときには億劫にならず英語表記するほうが曖昧さを回避できるかもしれませんねw","2018-08-31 03:41 +0000","65.0","4.0","0.06153846153846154","0.0","1.0","1.0","0.0","0.0","0.0","2.0","0.0","0","0","0","0","0","0","0","-","-","-","-","-","-","-","-","-","-","-","-","-","-","-","-","-","-"
"1035365344246784000","https://twitter.com/drumato/status/1035365344246784000","@suikasu123 良かったです！","2018-08-31 03:15 +0000","209.0","1.0","0.004784688995215311","0.0","0.0","1.0","0.0","0.0","0.0","0.0","0.0","0","0","0","0","0","0","0","-","-","-","-","-","-","-","-","-","-","-","-","-","-","-","-","-","-"
"1035364158693208066","https://twitter.com/drumato/status/1035364158693208066","@suikasu123 &lt;= とか&gt;=が正しいと思います","2018-08-31 03:10 +0000","221.0","5.0","0.02262443438914027","0.0","1.0","0.0","2.0","0.0","0.0","2.0","0.0","0","0","0","0","0","0","0","-","-","-","-","-","-","-","-","-","-","-","-","-","-","-","-","-","-"
"1035364043148615681","https://twitter.com/drumato/status/1035364043148615681","@suikasu123 多分ですけど
大小記号とイコール逆じゃないですか？
GOやってないのでわかりませんけどw","2018-08-31 03:09 +0000","195.0","4.0","0.020512820512820513","0.0","0.0","0.0","2.0","0.0","0.0","2.0","0.0","0","0","0","0","0","0","0","-","-","-","-","-","-","-","-","-","-","-","-","-","-","-","-","-","-"
"1035308185073070080","https://twitter.com/drumato/status/1035308185073070080","@nokonoko_1203 チャーと読んでいる人も結構いるので（学校の先生とか）決してまちがってはいないですけど英語発音的にはグレーな感じですね…
HDDをエッチデーデーと言ったりする感じでしょうか？私もよくわかりませんw","2018-08-30 23:28 +0000","131.0","4.0","0.030534351145038167","0.0","1.0","1.0","0.0","0.0","0.0","2.0","0.0","0","0","0","0","0","0","0","-","-","-","-","-","-","-","-","-","-","-","-","-","-","-","-","-","-"
"1035144651504644096","https://twitter.com/drumato/status/1035144651504644096","@nokonoko_1203 charをチャーと読むのは、HDDをエッチデーデーと読むようなレガシーさがありますね…w","2018-08-30 12:38 +0000","162.0","2.0","0.012345679012345678","0.0","1.0","1.0","0.0","0.0","0.0","0.0","0.0","0","0","0","0","0","0","0","-","-","-","-","-","-","-","-","-","-","-","-","-","-","-","-","-","-"
"1034927614643695616","https://twitter.com/drumato/status/1034927614643695616","疲れたーーー！
勉強生活にまた戻ります。","2018-08-29 22:15 +0000","82.0","5.0","0.06097560975609756","0.0","0.0","1.0","4.0","0.0","0.0","0.0","0.0","0","0","0","0","0","0","0","-","-","-","-","-","-","-","-","-","-","-","-","-","-","-","-","-","-"
"1033691157279076357","https://twitter.com/drumato/status/1033691157279076357","StackoverflowやTeratailの方が明らかに適している。
何故これのことが良くないのかよくわからない人は、「RoRの●●というエラー」について同じ道を歩んだ人をQiitaで探していたら、
「僕もわかりません！」という記事を見つけた事例がわかりやすいかも。
それぞれのサービスには目指す方向性がある。","2018-08-26 12:22 +0000","167.0","2.0","0.011976047904191617","0.0","0.0","0.0","1.0","0.0","0.0","1.0","0.0","0","0","0","0","0","0","0","-","-","-","-","-","-","-","-","-","-","-","-","-","-","-","-","-","-"
"1033690160024580096","https://twitter.com/drumato/status/1033690160024580096","自分も平均との相対で言えば変な記事の上げ方してる部類には入りますが、Qiitaにこれから●●頑張ります！という記事が乱立している…。
志自体は殊勝なだけに言いづらいけど、「Qiita = 初心者が記事をあげるのもおっけー」ではあれど、
「Qiita = 何もわかりません！」をあげていいわけでは無い…。","2018-08-26 12:18 +0000","103.0","4.0","0.038834951456310676","0.0","1.0","0.0","0.0","0.0","0.0","3.0","0.0","0","0","0","0","0","0","0","-","-","-","-","-","-","-","-","-","-","-","-","-","-","-","-","-","-"
"1033568682465619968","https://twitter.com/drumato/status/1033568682465619968","こちらの方の記事にコメントさせていただいた通り、""to_iメソッド""は変数が紐づけるオブジェクトそのものを変更するわけではないことに注意。
あくまでメソッド呼び出し全体の返り値を変化させるに過ぎません。

因みにこういう細かい挙動はirbに問いかけるのがおすすめ。
 https://t.co/zgKNWwEkcc","2018-08-26 04:15 +0000","86.0","5.0","0.05813953488372093","0.0","0.0","0.0","0.0","5.0","0.0","0.0","0.0","0","0","0","0","0","0","0","-","-","-","-","-","-","-","-","-","-","-","-","-","-","-","-","-","-"
"1032839790259888128","https://twitter.com/drumato/status/1032839790259888128","@nokonoko_1203 私のような学生程度が考えたので根本的な解決にはならないかもしれませんが、クラウドファンディングというのは手かもしれませんね…

利用したくなるような、応援したくなるようなサービスを設計、宣伝してファンドを頂く。","2018-08-24 03:59 +0000","166.0","4.0","0.024096385542168676","0.0","1.0","1.0","0.0","0.0","0.0","2.0","0.0","0","0","0","0","0","0","0","-","-","-","-","-","-","-","-","-","-","-","-","-","-","-","-","-","-"
"1032578111726997505","https://twitter.com/drumato/status/1032578111726997505","@4getCatallergy 既にご存知かとは思いますが、
https://t.co/WPMMXjCsSe
こちらのサイトもオススメです！","2018-08-23 10:39 +0000","53.0","13.0","0.24528301886792453","0.0","0.0","0.0","3.0","8.0","0.0","2.0","0.0","0","0","0","0","0","0","0","-","-","-","-","-","-","-","-","-","-","-","-","-","-","-","-","-","-"
"1032547318271172608","https://twitter.com/drumato/status/1032547318271172608","今からDockerに入門する（ただ使えるじゃなく仮想化やコンテナについて深く理解する）時って
オライリーの本がいいのか
Docker/Kubernetes実践コンテナ開発入門がいいのかどっちなんだろうか…

もちろんLinuxのカーネル知識も必要なんだろうけど

#Docker
#Kubernetes","2018-08-23 08:37 +0000","334.0","3.0","0.008982035928143712","0.0","0.0","0.0","2.0","0.0","0.0","1.0","0.0","0","0","0","0","0","0","0","-","-","-","-","-","-","-","-","-","-","-","-","-","-","-","-","-","-"
"1032238518951534592","https://twitter.com/drumato/status/1032238518951534592","Javaをやっている同級生二人組に｢セッターとかゲッター教えて!｣とか｢オーバーライド教えて!｣とか言われて､勿論教えたいのでRubyにコメントアウトしまくって教えるのですが

Javaの人から見てRubyのソースって読みやすいのだろうか…?","2018-08-22 12:10 +0000","83.0","0.0","0.0","0.0","0.0","0.0","0.0","0.0","0.0","0.0","0.0","0","0","0","0","0","0","0","-","-","-","-","-","-","-","-","-","-","-","-","-","-","-","-","-","-"
"1032159896630779904","https://twitter.com/drumato/status/1032159896630779904","今目的の勉強（プログラミングなり資格なりネットワークなり様々）している私たちが気をつけることは、その目的達成の次にすぐに目的を作ることでしょう。

Rails覚えた！→Laravel流行ってるしやってみよう
Python任せろ！→いやコンピュータアーキテクチャよくわかってない勉強しよう

みたいな。","2018-08-22 06:57 +0000","175.0","6.0","0.03428571428571429","0.0","0.0","2.0","1.0","0.0","0.0","3.0","0.0","0","0","0","0","0","0","0","-","-","-","-","-","-","-","-","-","-","-","-","-","-","-","-","-","-"
"1032076231485739008","https://twitter.com/drumato/status/1032076231485739008","MNIST画像認識の学習やるとディープラーニングの楽しさが一気に広がった。

ゼロから作る本やってる人も4章終わるまで頑張ってみてね！","2018-08-22 01:25 +0000","80.0","1.0","0.0125","0.0","0.0","0.0","0.0","0.0","0.0","1.0","0.0","0","0","0","0","0","0","0","-","-","-","-","-","-","-","-","-","-","-","-","-","-","-","-","-","-"
"1031866581318430721","https://twitter.com/drumato/status/1031866581318430721","yieldに関する復習の内容を追記しました!
#ruby
 https://t.co/4ZHBZIxIjV","2018-08-21 11:32 +0000","102.0","3.0","0.029411764705882353","0.0","0.0","2.0","0.0","1.0","0.0","0.0","0.0","0","0","0","0","0","0","0","-","-","-","-","-","-","-","-","-","-","-","-","-","-","-","-","-","-"
"1031510875272699904","https://twitter.com/drumato/status/1031510875272699904","メタプログラミングRuby読んでる人って意外と少ないのかな?","2018-08-20 11:58 +0000","100.0","1.0","0.01","0.0","0.0","1.0","0.0","0.0","0.0","0.0","0.0","0","0","0","0","0","0","0","-","-","-","-","-","-","-","-","-","-","-","-","-","-","-","-","-","-"
"1031321229620174848","https://twitter.com/drumato/status/1031321229620174848","@4getCatallergy Pythonのwebフレームワークを使ったサイトが実際に稼働している例もあるので（インスタなど）
Python=数学マストと言うわけではないと思います！

機械学習やデータ分析にはどうしても絡んできますが、現在Pythonを楽しんでいらっしゃるのであれば続けてみては如何でしょう？","2018-08-19 23:25 +0000","123.0","12.0","0.0975609756097561","0.0","0.0","3.0","3.0","0.0","0.0","6.0","0.0","0","0","0","0","0","0","0","-","-","-","-","-","-","-","-","-","-","-","-","-","-","-","-","-","-"
"1031182691356442625","https://twitter.com/drumato/status/1031182691356442625","今結構Goにお熱なので、
オススメの学習リソースあれば教えていただきたい…（特に完全な入門書ではなく多言語履修者の為の実践本）

システムプログラミング言語ってことはRubyのGUI作ったり高速な処理できそうでワクワクしておる。

Cより実用性ありそうだし流行ってるし。","2018-08-19 14:14 +0000","332.0","2.0","0.006024096385542169","0.0","0.0","1.0","0.0","0.0","0.0","1.0","0.0","0","0","0","0","0","0","0","-","-","-","-","-","-","-","-","-","-","-","-","-","-","-","-","-","-"
"1030792220352237568","https://twitter.com/drumato/status/1030792220352237568","@nokonoko_1203 LINE botぐらいの規模だとFlaskで作っている方もよく見ますね！

私もコンタクトレンズの取り換え日を通知してもらうbotを作ろうとしましたが一度挫折しました…w

近いうちに挑戦しようと思ってます！
PythonのFWは何も出来ませんが…","2018-08-18 12:23 +0000","72.0","4.0","0.05555555555555555","0.0","1.0","1.0","0.0","0.0","0.0","2.0","0.0","0","0","0","0","0","0","0","-","-","-","-","-","-","-","-","-","-","-","-","-","-","-","-","-","-"
"1030790111917559808","https://twitter.com/drumato/status/1030790111917559808","1番意識して欲しい（意識したい）のは「積極的にコンタクト取るフットワークの軽さ」。

自分もこれを1番気をつけている。

ツイッターで相互フォローとかそういう話じゃなくて、
もっと技術的に深く話せて、仲良くなれる環境作りを自らすること。

例えばSlackで話すとか直に会うとか。","2018-08-18 12:14 +0000","118.0","3.0","0.025423728813559324","0.0","0.0","1.0","0.0","0.0","0.0","2.0","0.0","0","0","0","0","0","0","0","-","-","-","-","-","-","-","-","-","-","-","-","-","-","-","-","-","-"
"1030739041447108608","https://twitter.com/drumato/status/1030739041447108608","今日は一日もくもく会に参加しています!

フォロワーさんの中には既に参加したことある方もいるかもしれませんが､
参加したこと無い方は是非｡色んな方がいて刺激になるし勉強もはかどります!
今回はメタプログラミングの記事を大きく追記したので一日が終わりましたが､かなりいい復習になりました!","2018-08-18 08:51 +0000","106.0","1.0","0.009433962264150943","0.0","0.0","1.0","0.0","0.0","0.0","0.0","0.0","0","0","0","0","0","0","0","-","-","-","-","-","-","-","-","-","-","-","-","-","-","-","-","-","-"
"1030719518375460866","https://twitter.com/drumato/status/1030719518375460866","動的メソッドや動的ディスパッチなど､
メタプログラミングの観点からアプローチする章をついかしました!
https://t.co/4ZHBZIxIjV","2018-08-18 07:34 +0000","123.0","1.0","0.008130081300813009","0.0","0.0","0.0","0.0","1.0","0.0","0.0","0.0","0","0","0","0","0","0","0","-","-","-","-","-","-","-","-","-","-","-","-","-","-","-","-","-","-"
"1029994276485193729","https://twitter.com/drumato/status/1029994276485193729","@nokonoko_1203 自分も遠くない未来にラズパイ買ってブザー&amp;ランプ点灯でもやってみたいなぁと思っていたので
のこのこさんの努力を尊敬すると共に自分はもっと苦労するんだろうなぁとビクビクしております…w
おめでとうございます!","2018-08-16 07:32 +0000","143.0","3.0","0.02097902097902098","0.0","1.0","2.0","0.0","0.0","0.0","0.0","0.0","0","0","0","0","0","0","0","-","-","-","-","-","-","-","-","-","-","-","-","-","-","-","-","-","-"
"1029910724447879168","https://twitter.com/drumato/status/1029910724447879168","Refinementsについての内容をついかしました!
オープンクラスに怯えてる方々への助け舟｡
 on @Qiita https://t.co/4ZHBZIxIjV","2018-08-16 02:00 +0000","80.0","1.0","0.0125","0.0","0.0","0.0","0.0","1.0","0.0","0.0","0.0","0","0","0","0","0","0","0","-","-","-","-","-","-","-","-","-","-","-","-","-","-","-","-","-","-"
"1029305868855066624","https://twitter.com/drumato/status/1029305868855066624","プログラミング未経験者がエンジニアとして配属されるまでに使った書籍と学習コンテンツ on @Qiita https://t.co/mVKoQCJeBO

素敵で概ね名著揃い。

独習Rubyには触れてないから参考になった。

個人的にはプロになるためのWeb技術入門をお勧めしてるのが素敵。","2018-08-14 09:56 +0000","277.0","11.0","0.039711191335740074","1.0","0.0","0.0","1.0","9.0","0.0","0.0","0.0","0","0","0","0","0","0","0","-","-","-","-","-","-","-","-","-","-","-","-","-","-","-","-","-","-"
"1029294617852694528","https://twitter.com/drumato/status/1029294617852694528","IT関係なくて申し訳ないけど恋愛映画大好き宣言","2018-08-14 09:12 +0000","99.0","1.0","0.010101010101010102","0.0","0.0","0.0","0.0","0.0","0.0","1.0","0.0","0","0","0","0","0","0","0","-","-","-","-","-","-","-","-","-","-","-","-","-","-","-","-","-","-"
"1028625549982199809","https://twitter.com/drumato/status/1028625549982199809","Kerasとかフレームワークに頼らず理論と実装を真に学習したいなら､
0から作るディープラーニングは絶対にやるべき｡

ただ自分は機械学習の本として1つ目にこの本を選んで学習していますが､
正直めちゃくちゃ難しいので､段階を踏んで学習死体人はもう少し下のレベルをおすすめします｡","2018-08-12 12:53 +0000","149.0","3.0","0.020134228187919462","0.0","0.0","2.0","1.0","0.0","0.0","0.0","0.0","0","0","0","0","0","0","0","-","-","-","-","-","-","-","-","-","-","-","-","-","-","-","-","-","-"
"1028411539189985280","https://twitter.com/drumato/status/1028411539189985280","初心者がつまづくランキング第一位の""self""についてと､
クラスメソッド定義の仕組みについての解説を追加しました!
初心者でselfがわからない皆様確実に読んでほしい｡
#Ruby on @Qiita https://t.co/4ZHBZIxIjV","2018-08-11 22:43 +0000","172.0","7.0","0.040697674418604654","0.0","0.0","2.0","0.0","5.0","0.0","0.0","0.0","0","0","0","0","0","0","0","-","-","-","-","-","-","-","-","-","-","-","-","-","-","-","-","-","-"
"1028265809276104704","https://twitter.com/drumato/status/1028265809276104704","怖いので早めに消します。
悪用厳禁。","2018-08-11 13:04 +0000","61.0","4.0","0.06557377049180328","0.0","0.0","0.0","0.0","0.0","0.0","4.0","0.0","0","0","0","0","0","0","0","-","-","-","-","-","-","-","-","-","-","-","-","-","-","-","-","-","-"
"1027907293126352896","https://twitter.com/drumato/status/1027907293126352896","やはり入門者にはオススメ出来ないと言われてるだけあって､
｢0から始めるDeepLearning｣は難しいですね｡

やりがいがある｡","2018-08-10 13:19 +0000","79.0","4.0","0.05063291139240506","0.0","0.0","0.0","3.0","0.0","0.0","1.0","0.0","0","0","0","0","0","0","0","-","-","-","-","-","-","-","-","-","-","-","-","-","-","-","-","-","-"
"1027824529232412672","https://twitter.com/drumato/status/1027824529232412672","@maco_rails おすすめはLINEとかコミュニケーションツールをPCで打つことです!

タイピングのサイトとかで練習したりタイピングの方法を勉強とかしなくても､

とにかく場所覚えて打ちまくれば
冗談抜きで打鍵音と指の感覚で今何のキーを押したかわかるようになります!","2018-08-10 07:50 +0000","60.0","5.0","0.08333333333333333","0.0","1.0","2.0","0.0","0.0","0.0","2.0","0.0","0","0","0","0","0","0","0","-","-","-","-","-","-","-","-","-","-","-","-","-","-","-","-","-","-"
"1027544072905416705","https://twitter.com/drumato/status/1027544072905416705","とりあえず言語の基礎的な文法が終わったら
Qiitaとか初心者さんが上げてる記事に対してどんどんコメントすると良いと思います!

ただし､ちゃんと相手が素直に受け入れられるように優しい文章で､
決して見下したりすることのないようにしましょうね!

アウトプットガンガン出来ていいと思います!","2018-08-09 13:16 +0000","111.0","1.0","0.009009009009009009","0.0","0.0","1.0","0.0","0.0","0.0","0.0","0.0","0","0","0","0","0","0","0","-","-","-","-","-","-","-","-","-","-","-","-","-","-","-","-","-","-"
"1027542541007286272","https://twitter.com/drumato/status/1027542541007286272","@edash18 いやいやほんとにグラフとか上げてるのめちゃくちゃ凄いです…
私プログラミング初めて数ヶ月なので自分からがつがつ実装してるの見るとめちゃくちゃ尊敬します…

むしろこっちがアドバイス頂く側になるかもしれませんがよろしくお願いします!","2018-08-09 13:10 +0000","47.0","1.0","0.02127659574468085","0.0","0.0","0.0","1.0","0.0","0.0","0.0","0.0","0","0","0","0","0","0","0","-","-","-","-","-","-","-","-","-","-","-","-","-","-","-","-","-","-"
"1027531336020418561","https://twitter.com/drumato/status/1027531336020418561","本日やったこと
･メタプログラミングRubyの既読部分の情報整理
･CCNAイージスの序盤､特にプロトコルスイートの復習(FEでやった)
･0から始めるDeepLearningをやr…やろうとした(行列わからないから明日知り合いに聞く)

その他
暑すぎたのにエアコン部屋にないから勉強できずLoLに逃げた→✗✗✗✗","2018-08-09 12:25 +0000","130.0","0.0","0.0","0.0","0.0","0.0","0.0","0.0","0.0","0.0","0.0","0","0","0","0","0","0","0","-","-","-","-","-","-","-","-","-","-","-","-","-","-","-","-","-","-"
"1027527290052210688","https://twitter.com/drumato/status/1027527290052210688","@edash18 アルゴリズムから何から全てご自身で実装したいという場合には
ただのお節介かもしれませんが､

Qiitaに似たような記事があったので良かったら参考になさって下さい!
私もPythonの機械学習(とデータ分析)には興味があるので
応援してます!
https://t.co/ohU8Bc4Ej5","2018-08-09 12:09 +0000","90.0","14.0","0.15555555555555556","0.0","1.0","0.0","4.0","6.0","0.0","3.0","0.0","0","0","0","0","0","0","0","-","-","-","-","-","-","-","-","-","-","-","-","-","-","-","-","-","-"
"1027525973833445377","https://twitter.com/drumato/status/1027525973833445377","メソッド呼び出しの仕組み についての内容をついかしました!
#Ruby
#Qiita
#メタプログラミング
 on @Qiita https://t.co/4ZHBZIxIjV","2018-08-09 12:04 +0000","114.0","2.0","0.017543859649122806","0.0","0.0","1.0","0.0","1.0","0.0","0.0","0.0","0","0","0","0","0","0","0","-","-","-","-","-","-","-","-","-","-","-","-","-","-","-","-","-","-"
"1027315847222587392","https://twitter.com/drumato/status/1027315847222587392","@Mt_Yonell アドバイスありがとうございます！
実際勉強に優先度をつけていて、
やりたいことも少しずつ固まっているのですが
せっかく四年間の学生生活があるのでなんでも挑戦してみたいんですよね！

ただ仰る通りなので先のこと考えながらやりたいと思います！ありがとうございます！","2018-08-08 22:09 +0000","67.0","0.0","0.0","0.0","0.0","0.0","0.0","0.0","0.0","0.0","0.0","0","0","0","0","0","0","0","-","-","-","-","-","-","-","-","-","-","-","-","-","-","-","-","-","-"
"1027186143572373509","https://twitter.com/drumato/status/1027186143572373509","・Haskell→己のレベルアップの為。LispとかScalaと悩んでる
・Java→ほんとは1番手出したかった。優先度低すぎるから取り敢えずソース読める程度には。
・JS→正直好きじゃない。CTFのために読めるようにしたい。","2018-08-08 13:33 +0000","127.0","3.0","0.023622047244094488","0.0","0.0","0.0","2.0","0.0","0.0","1.0","0.0","0","0","0","0","0","0","0","-","-","-","-","-","-","-","-","-","-","-","-","-","-","-","-","-","-"
"1027185643103764481","https://twitter.com/drumato/status/1027185643103764481","やる（やってる）言語とその理由
・ Ruby→惚れた単純に好きRailsやりたい
・Python→当初はCTF目的 今は機械学習とDjango
・C言語→己のレベルアップ。C++やりたかった（Cの勉強はしまくりたいけど++はいいかな）
・Go→Cに代わる言語？だから 単純に流行ってるのも強い。てかなんでも出来そう。","2018-08-08 13:31 +0000","221.0","10.0","0.04524886877828054","0.0","1.0","3.0","2.0","0.0","0.0","4.0","0.0","0","0","0","0","0","0","0","-","-","-","-","-","-","-","-","-","-","-","-","-","-","-","-","-","-"
"1027144892445732864","https://twitter.com/drumato/status/1027144892445732864","@maco_rails 1ヶ月課金した事あります！
Progateはサクサク進めるので、1ヶ月集中して取り組めば安く済むと思います！
Progateに書いたコードをローカルに写経していじくると捗ると思います！
ツイートを拝見していて積極的な姿勢をお持ちだと尊敬しています！頑張ってください！","2018-08-08 10:50 +0000","123.0","9.0","0.07317073170731707","0.0","1.0","3.0","1.0","0.0","0.0","4.0","0.0","0","0","0","0","0","0","0","-","-","-","-","-","-","-","-","-","-","-","-","-","-","-","-","-","-"
"1027090630168608768","https://twitter.com/drumato/status/1027090630168608768","[随時更新]Ruby中級プログラマに告ぐメタプログラミングからの挑戦状 on @Qiita https://t.co/4ZHBZIxIjV","2018-08-08 07:14 +0000","142.0","4.0","0.028169014084507043","0.0","0.0","0.0","0.0","3.0","0.0","1.0","0.0","0","0","0","0","0","0","0","-","-","-","-","-","-","-","-","-","-","-","-","-","-","-","-","-","-"
"1027078321186557952","https://twitter.com/drumato/status/1027078321186557952","それだったらドットインストールの方が良いに決まってるし
この計画はおじゃんですね!","2018-08-08 06:25 +0000","84.0","1.0","0.011904761904761904","0.0","0.0","0.0","1.0","0.0","0.0","0.0","0.0","0","0","0","0","0","0","0","-","-","-","-","-","-","-","-","-","-","-","-","-","-","-","-","-","-"
"1026998138970595329","https://twitter.com/drumato/status/1026998138970595329","こちらの方の意見は至極正しくて､Progateがプログラミングの敷居を大きく下げてる事は言うまでもないですね(特にフロントエンド系が一通りさらえる点)｡

あくまで私見にはなるけど､
本気でエンジニアになりたいなら書籍学習もおすすめします｡
他者とのアドバンテージという点で｡ https://t.co/v0wewlDAvo","2018-08-08 01:06 +0000","1926.0","29.0","0.015057113187954309","1.0","1.0","9.0","12.0","0.0","0.0","6.0","0.0","0","0","0","0","0","0","0","-","-","-","-","-","-","-","-","-","-","-","-","-","-","-","-","-","-"
"1026837417343385600","https://twitter.com/drumato/status/1026837417343385600","@jnchito ラズパイとかと連携させるとPC自動起動とか出来ると聞いたことはありますね！

プログラマ限定にはなってしまいますが、Arduino等のマイコンに代わる、
「目に見えて実感する成果物」としてはかなり良い部類になるのでは？と思っていたりします。","2018-08-07 14:28 +0000","161.0","4.0","0.024844720496894408","0.0","0.0","2.0","0.0","0.0","0.0","2.0","0.0","0","0","0","0","0","0","0","-","-","-","-","-","-","-","-","-","-","-","-","-","-","-","-","-","-"
"1026836357744713730","https://twitter.com/drumato/status/1026836357744713730","いやC++はダメだ…Goかな！","2018-08-07 14:24 +0000","83.0","0.0","0.0","0.0","0.0","0.0","0.0","0.0","0.0","0.0","0.0","0","0","0","0","0","0","0","-","-","-","-","-","-","-","-","-","-","-","-","-","-","-","-","-","-"
"1026587685933051904","https://twitter.com/drumato/status/1026587685933051904","QiitaTシャツ買ってしまった！
うれしす https://t.co/nYnG1sB0CJ","2018-08-06 21:55 +0000","94.0","7.0","0.07446808510638298","0.0","0.0","0.0","2.0","0.0","0.0","0.0","0.0","0","0","0","0","0","5","5","-","-","-","-","-","-","-","-","-","-","-","-","-","-","-","-","-","-"
"1026456376208322561","https://twitter.com/drumato/status/1026456376208322561","Rubyのメタプログラミングってなんやねん、需要あるの？

って方のためにQiitaに頑張ってまとめてます
数千行の記事になるかもしれませんが、
細かく見出し作ってるので見たいところから見れるようになってます。

 Ruby中級者以上対象。

未経験、入門者対象のドキュメントも鋭意制作中です。","2018-08-06 13:14 +0000","90.0","3.0","0.03333333333333333","0.0","0.0","0.0","3.0","0.0","0.0","0.0","0.0","0","0","0","0","0","0","0","-","-","-","-","-","-","-","-","-","-","-","-","-","-","-","-","-","-"
"1026437148944347136","https://twitter.com/drumato/status/1026437148944347136","あたくし知らなかったのですけど今フロントエンド流行ってるんですか？","2018-08-06 11:57 +0000","57.0","0.0","0.0","0.0","0.0","0.0","0.0","0.0","0.0","0.0","0.0","0","0","0","0","0","0","0","-","-","-","-","-","-","-","-","-","-","-","-","-","-","-","-","-","-"
"1026237851896168448","https://twitter.com/drumato/status/1026237851896168448","ドラムの技術が付いてくると、基本どんな場所でもリズムを作りたくなるけど、時々めっちゃいいものを思いついてもボディスラップしかできなくて悲しくなるから、

口でドラムの譜面を歌うと生ドラムの音に変換してくれるソフト作ろうかな…","2018-08-05 22:45 +0000","58.0","0.0","0.0","0.0","0.0","0.0","0.0","0.0","0.0","0.0","0.0","0","0","0","0","0","0","0","-","-","-","-","-","-","-","-","-","-","-","-","-","-","-","-","-","-"
"1026224360044998656","https://twitter.com/drumato/status/1026224360044998656","@tomato_jimu 大変恐縮ながら私も勉強始めたばかりの学生なのでお力添え出来ず申し訳ないです…。
RoRは学習コストが高いと言われていますが、今だとPHPが流行っていて比較的簡単に始められると聞いているので是非調べてみてください！","2018-08-05 21:52 +0000","44.0","1.0","0.022727272727272728","0.0","1.0","0.0","0.0","0.0","0.0","0.0","0.0","0","0","0","0","0","0","0","-","-","-","-","-","-","-","-","-","-","-","-","-","-","-","-","-","-"
"1026108671162384384","https://twitter.com/drumato/status/1026108671162384384","もしかして｢もくもく会｣よりライトなイベントが必要なのではないか｡ [プログラミング] on @Qiita https://t.co/lA31gX4eId","2018-08-05 14:12 +0000","54.0","1.0","0.018518518518518517","0.0","0.0","0.0","0.0","0.0","0.0","1.0","0.0","0","0","0","0","0","0","0","-","-","-","-","-","-","-","-","-","-","-","-","-","-","-","-","-","-"
"1026027588005720064","https://twitter.com/drumato/status/1026027588005720064","@tomato_jimu RubyonRailsとかだとリモートインターンさせてくれる企業はよく見ます!研修や会社にある書籍を参照できない分最初のハードルは高いと聞きますが､どうなのでしょうね…","2018-08-05 08:50 +0000","87.0","5.0","0.05747126436781609","0.0","1.0","0.0","2.0","0.0","0.0","2.0","0.0","0","0","0","0","0","0","0","-","-","-","-","-","-","-","-","-","-","-","-","-","-","-","-","-","-"
"1025897212906168320","https://twitter.com/drumato/status/1025897212906168320","今日はもくもく会に参加しまーす！","2018-08-05 00:12 +0000","53.0","0.0","0.0","0.0","0.0","0.0","0.0","0.0","0.0","0.0","0.0","0","0","0","0","0","0","0","-","-","-","-","-","-","-","-","-","-","-","-","-","-","-","-","-","-"
"1025661066615840769","https://twitter.com/drumato/status/1025661066615840769","Qiitaで初めて人の記事に技術的なコメント(アドバイス方向で)を返した…
情報が間違ってないかわかりづらくないか心配でしょうがない…","2018-08-04 08:33 +0000","63.0","1.0","0.015873015873015872","0.0","0.0","0.0","1.0","0.0","0.0","0.0","0.0","0","0","0","0","0","0","0","-","-","-","-","-","-","-","-","-","-","-","-","-","-","-","-","-","-"
"1025576281159561216","https://twitter.com/drumato/status/1025576281159561216","○Qiitaにあげる予定のメタプログラミングRuby理解記事ごく一部
全ての配列に合計して得点出力の形にフォーマットする機能を追加したい時の例

1枚目→悪いコード
2枚目→オープンクラスを用いた良いコード(記事ではより良さがわかるような説明を加える｡)
3枚目→蔑称的な意味のモンキーパッチ実例 https://t.co/dm5kMNXCkl","2018-08-04 02:56 +0000","129.0","11.0","0.08527131782945736","0.0","0.0","0.0","1.0","2.0","0.0","4.0","0.0","0","0","0","0","0","4","4","-","-","-","-","-","-","-","-","-","-","-","-","-","-","-","-","-","-"
"1024962275914838017","https://twitter.com/drumato/status/1024962275914838017","と思ったけどどう考えてもVirtualBoxより
VMwareの方が強い｡","2018-08-02 10:17 +0000","64.0","0.0","0.0","0.0","0.0","0.0","0.0","0.0","0.0","0.0","0.0","0","0","0","0","0","0","0","-","-","-","-","-","-","-","-","-","-","-","-","-","-","-","-","-","-"
"1024658192817483776","https://twitter.com/drumato/status/1024658192817483776","私のように学生で
取り敢えずLinuxに挑戦だ！
↓
・Vi,Vimの操作できずに設定できなくて詰む
・selinuxに脅されて詰む
・間違えてCUI環境にしちゃって詰む
・Pythonやりたくてパッケージ管理の処理とコンフリクトして詰む
・日本語入力で詰む
・その他詰む
ので設定フローチャートQiitaに解説あげます","2018-08-01 14:08 +0000","92.0","1.0","0.010869565217391304","0.0","0.0","0.0","1.0","0.0","0.0","0.0","0.0","0","0","0","0","0","0","0","-","-","-","-","-","-","-","-","-","-","-","-","-","-","-","-","-","-"
