"ツイートID","ツイートの固定リンク","ツイート本文","時間","インプレッション","エンゲージメント","エンゲージメント率","リツイート","返信","いいね","ユーザープロフィールクリック","URLクリック数","ハッシュタグクリック","詳細クリック","固定リンクのクリック数","アプリ表示","アプリインストール","フォローしている","ツイートをメール送信","ダイアル式電話","メディアの再生数","メディアのエンゲージメント","プロモのインプレッション","プロモのエンゲージメント","プロモのエンゲージメント率","プロモのリツイート","プロモの返信","プロモのいいね","プロモのユーザープロフィールクリック","プロモのURLクリック数","プロモのハッシュタグクリック","プロモの詳細クリック","プロモの固定リンクのクリック数","プロモのアプリ表示","プロモのアプリインストール","プロモのフォローしている","プロモのツイートをメール送信","プロモのダイアル式電話","プロモのメディアの再生数","プロモのメディアのエンゲージメント"
"1079640605733482498","https://twitter.com/drumato/status/1079640605733482498","Amazonポイント3000ぐらい溜まってたから買った
めっちゃ良さそう https://t.co/t8D1Eyqs3i","2018-12-31 07:29 +0000","459.0","100.0","0.2178649237472767","1.0","0.0","2.0","5.0","1.0","0.0","0.0","0.0","0","0","0","0","0","91","91","-","-","-","-","-","-","-","-","-","-","-","-","-","-","-","-","-","-"
"1079526225528254465","https://twitter.com/drumato/status/1079526225528254465","あーどうしよう､GCPのインスタンス立てようかなぁ…
流石にカーネルだと学習時間待ちという問題が付きまとう","2018-12-30 23:54 +0000","205.0","2.0","0.00975609756097561","0.0","0.0","0.0","2.0","0.0","0.0","0.0","0.0","0","0","0","0","0","0","0","-","-","-","-","-","-","-","-","-","-","-","-","-","-","-","-","-","-"
"1079497423074906113","https://twitter.com/drumato/status/1079497423074906113","2018年を振り返り､2019年の抱負を宣言しました!
#Ruby
#Python
#Kaggle
#機械学習
#はてなブログ
2018年を振り返る+2019年の目標を立てる - Drumatoの独り言
https://t.co/P1M4t3keZ8","2018-12-30 22:00 +0000","525.0","19.0","0.03619047619047619","2.0","0.0","6.0","1.0","9.0","1.0","0.0","0.0","0","0","0","0","0","0","0","-","-","-","-","-","-","-","-","-","-","-","-","-","-","-","-","-","-"
"1079387420376715264","https://twitter.com/drumato/status/1079387420376715264","明日の七時に一年(正確には八ヶ月)をまとめ､来年の抱負を掲げた記事を投稿します｡
結構長くなってしまった…でも2､3時間で書き上がりました","2018-12-30 14:43 +0000","175.0","2.0","0.011428571428571429","0.0","0.0","0.0","2.0","0.0","0.0","0.0","0.0","0","0","0","0","0","0","0","-","-","-","-","-","-","-","-","-","-","-","-","-","-","-","-","-","-"
"1079311149227597825","https://twitter.com/drumato/status/1079311149227597825","れとるときゃりーさんのGitHub活用法(個人開発でもIssueドリブンな開発する)はもう非の打ち所の無い凄いいいものだと思ったんだけど､

GitLabならIssueとProject(GitHubのカンバン方式でタスク管理できるやつ)が統合されてるし結局GitLab最強じゃない?","2018-12-30 09:40 +0000","572.0","10.0","0.017482517482517484","0.0","0.0","7.0","3.0","0.0","0.0","0.0","0.0","0","0","0","0","0","0","0","-","-","-","-","-","-","-","-","-","-","-","-","-","-","-","-","-","-"
"1079222616857038848","https://twitter.com/drumato/status/1079222616857038848","pd.pivot_tableが強すぎたので解散
バイト終わったらもりりもりりと詰め込んでsubmitしとこ","2018-12-30 03:48 +0000","157.0","0.0","0.0","0.0","0.0","0.0","0.0","0.0","0.0","0.0","0.0","0","0","0","0","0","0","0","-","-","-","-","-","-","-","-","-","-","-","-","-","-","-","-","-","-"
"1079199976897404929","https://twitter.com/drumato/status/1079199976897404929","ブログ書きまくりたい欲が凄くて凄いいっぱいのネタがあるけど､
それを凌駕するレベルでKaggleと勉強がしたいからもう体20個ぐらいほしい
んで一人(哲学的ゾンビ)にバイト行かせれば全て丸く収まる","2018-12-30 02:18 +0000","310.0","3.0","0.00967741935483871","0.0","0.0","1.0","2.0","0.0","0.0","0.0","0.0","0","0","0","0","0","0","0","-","-","-","-","-","-","-","-","-","-","-","-","-","-","-","-","-","-"
"1079194265392017409","https://twitter.com/drumato/status/1079194265392017409","@upura0 やはりその本ですよね…!
u++さんが取り組んでいるというのを聞いて､
より自分の中でテストコードの重要性が高まりました!ありがとうございます!","2018-12-30 01:55 +0000","250.0","2.0","0.008","0.0","0.0","1.0","0.0","0.0","0.0","1.0","0.0","0","0","0","0","0","0","0","-","-","-","-","-","-","-","-","-","-","-","-","-","-","-","-","-","-"
"1079193264433942528","https://twitter.com/drumato/status/1079193264433942528","@upura0 前処理のコードとかエラー起こす回数凄い減らしたいので自分のテスト書けるようになりたいです…!
この前Pythonのテスト駆動開発みたいな本が出たので近々手を付けようかと…｡","2018-12-30 01:51 +0000","282.0","4.0","0.014184397163120567","0.0","1.0","1.0","0.0","0.0","0.0","2.0","0.0","0","0","0","0","0","0","0","-","-","-","-","-","-","-","-","-","-","-","-","-","-","-","-","-","-"
"1079192915220426753","https://twitter.com/drumato/status/1079192915220426753","参考にしたカーネルから自分なりの処理をえんやこらと積み重ねた結果CV 2.0ぐらい上がって一安心","2018-12-30 01:50 +0000","216.0","4.0","0.018518518518518517","0.0","0.0","2.0","2.0","0.0","0.0","0.0","0.0","0","0","0","0","0","0","0","-","-","-","-","-","-","-","-","-","-","-","-","-","-","-","-","-","-"
"1079023268990861312","https://twitter.com/drumato/status/1079023268990861312","アルバイトしながら思いついた最強の特徴量を作ろうと2,3時間格闘したけど
コードが上手くいかなくて萎えてたら前処理大全にそれっぽいの乗っててやっぱ最強ってなりました","2018-12-29 14:36 +0000","412.0","10.0","0.024271844660194174","0.0","0.0","4.0","4.0","0.0","0.0","2.0","0.0","0","0","0","0","0","0","0","-","-","-","-","-","-","-","-","-","-","-","-","-","-","-","-","-","-"
"1078532487955939328","https://twitter.com/drumato/status/1078532487955939328","何時間もかかったけど､Malwareコンペの基盤になるカーネル完成した…
ここからいろいろやっていくにしても､このカーネルを作ったことは後々必ず助けになるはず…｡","2018-12-28 06:05 +0000","313.0","7.0","0.022364217252396165","0.0","0.0","1.0","3.0","0.0","0.0","3.0","0.0","0","0","0","0","0","0","0","-","-","-","-","-","-","-","-","-","-","-","-","-","-","-","-","-","-"
"1078522927199318016","https://twitter.com/drumato/status/1078522927199318016","Kaggleの前処理とか特徴量抽出見ると競プロの香りがほのかにしてくるし､
開発っぽいコードも書いてる自分からするとめちゃくちゃかっこよく思えて見てて楽しい

そして自分で特徴量作る時にそういうコード書きがちになる","2018-12-28 05:27 +0000","502.0","7.0","0.013944223107569721","0.0","0.0","5.0","2.0","0.0","0.0","0.0","0.0","0","0","0","0","0","0","0","-","-","-","-","-","-","-","-","-","-","-","-","-","-","-","-","-","-"
"1078276402938408961","https://twitter.com/drumato/status/1078276402938408961","Malwareコンペの合間に便利なツール作ろうのコーナー｡
アンサンブルの勉強に複数モデル訓練させると時間が空く空く…｡
CatBoost使えるようになりたい｡
#はてなブログ
Kaggle学習中の合間にGitHubAPIを加工し…
https://t.co/NUbi5LQOmm","2018-12-27 13:08 +0000","1579.0","22.0","0.013932868904369854","3.0","0.0","8.0","4.0","5.0","0.0","2.0","0.0","0","0","0","0","0","0","0","-","-","-","-","-","-","-","-","-","-","-","-","-","-","-","-","-","-"
"1077421898374426624","https://twitter.com/drumato/status/1077421898374426624","Vimの記事書きました｡
OniVimは新規ファイルの保存先とか管理がめんどいけど､
もっと流行っていいと思う｡
#OniVim
#Vim
#はてなブログ
わたしのVim,vimrc - Drumatoの独り言
https://t.co/vbjX8MRnlT","2018-12-25 04:32 +0000","232.0","10.0","0.04310344827586207","0.0","0.0","1.0","2.0","7.0","0.0","0.0","0.0","0","0","0","0","0","0","0","-","-","-","-","-","-","-","-","-","-","-","-","-","-","-","-","-","-"
"1077400693009346562","https://twitter.com/drumato/status/1077400693009346562","Markdownとか日本語の文書に関しては贔屓目に見てもVSCodeに軍配があがるが､
多数ファイルを全体感持ちながら編集･開発→OniVim
ファイル数が少なく､また頻繁にシェルコマンドを打つ→ターミナル+Vim
が完全に最強でフィニッシュ
自分はこの環境を延々使っていくことになりそう","2018-12-25 03:08 +0000","360.0","2.0","0.005555555555555556","0.0","0.0","1.0","0.0","0.0","0.0","1.0","0.0","0","0","0","0","0","0","0","-","-","-","-","-","-","-","-","-","-","-","-","-","-","-","-","-","-"
"1077367210392223744","https://twitter.com/drumato/status/1077367210392223744","@wabisuke2718 そうですね…先行投資額をどれだけ確保できるかが分かれ目になりそうです｡
自分はディープラーニング用に高いPCを買うまではお金を貯め続けようと思っています｡
GCE等の構築は凄い便利そうですが､どうせならローカルに置いとくほうがいろいろなことにつかえそうなので…","2018-12-25 00:55 +0000","64.0","2.0","0.03125","0.0","0.0","0.0","0.0","0.0","0.0","2.0","0.0","0","0","0","0","0","0","0","-","-","-","-","-","-","-","-","-","-","-","-","-","-","-","-","-","-"
"1077217649304563712","https://twitter.com/drumato/status/1077217649304563712","Kaggleは他データ分析系プラットフォームよりデータ的に興味も有るし､
コミュニティの盛り上がりも凄いから文句なしに熱中しているけど､

データサイズが大きいコンペが多いから､
どうしてもマシンリソース的にきついよなぁ…
技術書代とか後々減らしてハイエンドPCの為に貯めようっと","2018-12-24 15:01 +0000","811.0","29.0","0.035758323057953144","2.0","1.0","8.0","13.0","0.0","0.0","5.0","0.0","0","0","0","0","0","0","0","-","-","-","-","-","-","-","-","-","-","-","-","-","-","-","-","-","-"
"1077207422689656834","https://twitter.com/drumato/status/1077207422689656834","永きに渡る前処理を終え、ようやく学習開始にこぎつけた…。","2018-12-24 14:20 +0000","261.0","4.0","0.01532567049808429","0.0","0.0","2.0","0.0","0.0","0.0","2.0","0.0","0","0","0","0","0","0","0","-","-","-","-","-","-","-","-","-","-","-","-","-","-","-","-","-","-"
"1077150948865146880","https://twitter.com/drumato/status/1077150948865146880","Peing始めました｡マサカリ待ってます｡
https://t.co/FNeclRBfkG","2018-12-24 10:36 +0000","176.0","4.0","0.022727272727272728","0.0","0.0","0.0","3.0","1.0","0.0","0.0","0.0","0","0","0","0","0","0","0","-","-","-","-","-","-","-","-","-","-","-","-","-","-","-","-","-","-"
"1077120397382799362","https://twitter.com/drumato/status/1077120397382799362","なんかデータ量多すぎて凄い時間かかるなぁ","2018-12-24 08:34 +0000","301.0","3.0","0.009966777408637873","0.0","0.0","1.0","2.0","0.0","0.0","0.0","0.0","0","0","0","0","0","0","0","-","-","-","-","-","-","-","-","-","-","-","-","-","-","-","-","-","-"
"1076859996518768642","https://twitter.com/drumato/status/1076859996518768642","明日はKernelとDiscussion追って銅圏ぐらいまで足並み揃えたい","2018-12-23 15:20 +0000","432.0","8.0","0.018518518518518517","0.0","0.0","1.0","7.0","0.0","0.0","0.0","0.0","0","0","0","0","0","0","0","-","-","-","-","-","-","-","-","-","-","-","-","-","-","-","-","-","-"
"1076323580776828928","https://twitter.com/drumato/status/1076323580776828928","アルバイト中にドメイン知識側から特徴量エンジニアリングを出来ないか考えてみよう","2018-12-22 03:48 +0000","240.0","4.0","0.016666666666666666","0.0","0.0","0.0","4.0","0.0","0.0","0.0","0.0","0","0","0","0","0","0","0","-","-","-","-","-","-","-","-","-","-","-","-","-","-","-","-","-","-"
"1076143814295793664","https://twitter.com/drumato/status/1076143814295793664","あー､わかったぞ…
なんかわかってきた(わかってない)","2018-12-21 15:54 +0000","285.0","3.0","0.010526315789473684","0.0","0.0","0.0","3.0","0.0","0.0","0.0","0.0","0","0","0","0","0","0","0","-","-","-","-","-","-","-","-","-","-","-","-","-","-","-","-","-","-"
"1075970037746262016","https://twitter.com/drumato/status/1075970037746262016","Windowsにおける最低限CUI環境を紹介しました!
WSLとPowerShell同時起動は何かと都合がいい｡
#Vim
#Cmder
#はてなブログ
Windowsにおける最低限CUI環境｢Cmder｣ - Drumatoの独…
https://t.co/PJyi23ZcYg","2018-12-21 04:23 +0000","243.0","6.0","0.024691358024691357","0.0","0.0","1.0","0.0","5.0","0.0","0.0","0.0","0","0","0","0","0","0","0","-","-","-","-","-","-","-","-","-","-","-","-","-","-","-","-","-","-"
"1075905266590179328","https://twitter.com/drumato/status/1075905266590179328","日本メディカルAI学会による機械学習の無料教材です!
レジュメを見た感じ結構体系的にやっているっぽい
------
Google Colaboratoryを用いた機械学習・深層学習の入門教材を無料公開（健康・医療向けデータを用いた実践編も含む） https://t.co/KNF56QXQd8","2018-12-21 00:06 +0000","554.0","16.0","0.02888086642599278","1.0","0.0","9.0","3.0","3.0","0.0","0.0","0.0","0","0","0","0","0","0","0","-","-","-","-","-","-","-","-","-","-","-","-","-","-","-","-","-","-"
"1075783065723580417","https://twitter.com/drumato/status/1075783065723580417","Dockerのベストプラクティスみたいな話に入ってきて面白い。
凄い実践的でいいなあ","2018-12-20 16:00 +0000","316.0","6.0","0.0189873417721519","0.0","0.0","2.0","4.0","0.0","0.0","0.0","0.0","0","0","0","0","0","0","0","-","-","-","-","-","-","-","-","-","-","-","-","-","-","-","-","-","-"
"1075764811168833536","https://twitter.com/drumato/status/1075764811168833536","cmder環境凄い良いので記事にしよっと","2018-12-20 14:48 +0000","172.0","0.0","0.0","0.0","0.0","0.0","0.0","0.0","0.0","0.0","0.0","0","0","0","0","0","0","0","-","-","-","-","-","-","-","-","-","-","-","-","-","-","-","-","-","-"
"1075733780776665088","https://twitter.com/drumato/status/1075733780776665088","自分も技術力マシマシ知見マシマシな機械学習の記事を書きたい
まずは一つのコンペに本気で入れ込んでみないとな｡","2018-12-20 12:44 +0000","195.0","0.0","0.0","0.0","0.0","0.0","0.0","0.0","0.0","0.0","0.0","0","0","0","0","0","0","0","-","-","-","-","-","-","-","-","-","-","-","-","-","-","-","-","-","-"
"1075571896622542848","https://twitter.com/drumato/status/1075571896622542848","なんかKaggleおかしくないか…?
訓練中にコネクション切れたしcookieも剥がれたし","2018-12-20 02:01 +0000","475.0","4.0","0.008421052631578947","1.0","0.0","2.0","1.0","0.0","0.0","0.0","0.0","0","0","0","0","0","0","0","-","-","-","-","-","-","-","-","-","-","-","-","-","-","-","-","-","-"
"1075363869546098690","https://twitter.com/drumato/status/1075363869546098690","@upura0 凄いです…！
自分もmalwareコンペからカーネルは参考程度に、自分で考えてスコア上げようと思ってるので励みになります…。","2018-12-19 12:15 +0000","166.0","6.0","0.03614457831325301","0.0","1.0","1.0","3.0","0.0","0.0","1.0","0.0","0","0","0","0","0","0","0","-","-","-","-","-","-","-","-","-","-","-","-","-","-","-","-","-","-"
"1075330026583646208","https://twitter.com/drumato/status/1075330026583646208","Microsoftのマルウェア検出コンペに本気で挑むことにしたので1日1カーネルは休みます","2018-12-19 10:00 +0000","305.0","6.0","0.019672131147540985","0.0","0.0","1.0","5.0","0.0","0.0","0.0","0.0","0","0","0","0","0","0","0","-","-","-","-","-","-","-","-","-","-","-","-","-","-","-","-","-","-"
"1075230606714273792","https://twitter.com/drumato/status/1075230606714273792","@maguchi_p_q もう着きそう","2018-12-19 03:25 +0000","66.0","10.0","0.15151515151515152","0.0","1.0","0.0","5.0","0.0","0.0","4.0","0.0","0","0","0","0","0","0","0","-","-","-","-","-","-","-","-","-","-","-","-","-","-","-","-","-","-"
"1075192879352442880","https://twitter.com/drumato/status/1075192879352442880","PyTorchの公式チュートリアル翻訳第二弾を書きました!
データロードと前処理の章｡
#PyTorch
#はてなブログ
(第二回)PyTorchの公式ドキュメント翻訳ハンズオン - Drumatoの独り言
https://t.co/P7z72Qu0W5","2018-12-19 00:55 +0000","372.0","16.0","0.043010752688172046","0.0","0.0","6.0","0.0","8.0","0.0","2.0","0.0","0","0","0","0","0","0","0","-","-","-","-","-","-","-","-","-","-","-","-","-","-","-","-","-","-"
"1075023639341293569","https://twitter.com/drumato/status/1075023639341293569","カーネルのススメを書きました!
実際に読んでいったサンプルも紹介しています｡
※情報公開等の問題がある場合は連絡ください早急に削除します｡
#機械学習
#Kaggle
#はてなブログ
1日1カーネルのススメ(サンプルあり) - D…
https://t.co/MR6HiGqE1z","2018-12-18 13:43 +0000","772.0","60.0","0.07772020725388601","2.0","0.0","17.0","9.0","28.0","0.0","4.0","0.0","0","0","0","0","0","0","0","-","-","-","-","-","-","-","-","-","-","-","-","-","-","-","-","-","-"
"1075015871100153857","https://twitter.com/drumato/status/1075015871100153857","1日1カーネル「Mercari」
Item descriptionというカラムに対する前処理が凄い勉強になった
自然言語処理は全くもってわからないけど､
トークン化とかtfidfとか定石となる手法はやっぱりあるんだろうなぁ

自分が触ったこと無い分野のカーネルでも勉強になることは多い｡","2018-12-18 13:12 +0000","417.0","8.0","0.019184652278177457","1.0","0.0","3.0","4.0","0.0","0.0","0.0","0.0","0","0","0","0","0","0","0","-","-","-","-","-","-","-","-","-","-","-","-","-","-","-","-","-","-"
"1074967051154771968","https://twitter.com/drumato/status/1074967051154771968","PyTorchの翻訳記事第二弾書いています
MLPの画像認識のおかげで局所特徴の話とか理解できて嬉しい
明日明後日には投稿できそうです","2018-12-18 09:58 +0000","206.0","1.0","0.0048543689320388345","0.0","0.0","0.0","1.0","0.0","0.0","0.0","0.0","0","0","0","0","0","0","0","-","-","-","-","-","-","-","-","-","-","-","-","-","-","-","-","-","-"
"1074893847505756160","https://twitter.com/drumato/status/1074893847505756160","Anacondaはいけない(戒め)","2018-12-18 05:07 +0000","214.0","2.0","0.009345794392523364","0.0","0.0","0.0","2.0","0.0","0.0","0.0","0.0","0","0","0","0","0","0","0","-","-","-","-","-","-","-","-","-","-","-","-","-","-","-","-","-","-"
"1074805404796743681","https://twitter.com/drumato/status/1074805404796743681","マイナビコンペのアフターパーティ楽しみ
あの時は機械学習何それ状態だったので結果は散々だったけど、今なら上位者
のインタビューを聞くことで何かを得られるぐらいには成長した","2018-12-17 23:15 +0000","497.0","7.0","0.014084507042253521","0.0","0.0","3.0","4.0","0.0","0.0","0.0","0.0","0","0","0","0","0","0","0","-","-","-","-","-","-","-","-","-","-","-","-","-","-","-","-","-","-"
"1074626377003847681","https://twitter.com/drumato/status/1074626377003847681","1日1カーネル「Porto Seguro」
GitLabの非公開リポジトリにカーネルForkしけマークダウンにリーディング内容書くの最強

tkmさんの動画から1日目はこのコンペに決めた
フル英語の高Vote高スコアのカーネルで、めちゃくちゃ勉強になる

やっぱカーネルが一番勉強にいいかも","2018-12-17 11:24 +0000","578.0","18.0","0.031141868512110725","0.0","0.0","7.0","6.0","0.0","0.0","5.0","0.0","0","0","0","0","0","0","0","-","-","-","-","-","-","-","-","-","-","-","-","-","-","-","-","-","-"
"1074624291851841537","https://twitter.com/drumato/status/1074624291851841537","@bassbone0 @upura0 おぉー、Kaggle入門レベルということでますますほしくなりました！
1日1カーネルと並行してやろうかな…
わざわざご丁寧にありがとうございます！助かりました！","2018-12-17 11:16 +0000","1463.0","8.0","0.005468215994531784","0.0","1.0","1.0","1.0","0.0","0.0","5.0","0.0","0","0","0","0","0","0","0","-","-","-","-","-","-","-","-","-","-","-","-","-","-","-","-","-","-"
"1074500516254703617","https://twitter.com/drumato/status/1074500516254703617","@upura0 なるほど、英語読むのに慣れてきたタイミングなので、頑張れそうです！
Kaggler-ja外でもアドバイスいただけて恐縮です","2018-12-17 03:04 +0000","1504.0","11.0","0.007313829787234043","0.0","1.0","1.0","1.0","0.0","0.0","8.0","0.0","0","0","0","0","0","0","0","-","-","-","-","-","-","-","-","-","-","-","-","-","-","-","-","-","-"
"1074478731274547201","https://twitter.com/drumato/status/1074478731274547201","@upura0 この本良さそうですよね…欲しいものリストに入ってます…!

買ったらレポ書こうかな…?","2018-12-17 01:37 +0000","1513.0","4.0","0.0026437541308658294","0.0","1.0","1.0","1.0","0.0","0.0","1.0","0.0","0","0","0","0","0","0","0","-","-","-","-","-","-","-","-","-","-","-","-","-","-","-","-","-","-"
"1074322288843997184","https://twitter.com/drumato/status/1074322288843997184","一日一カーネルするか…。","2018-12-16 15:16 +0000","184.0","1.0","0.005434782608695652","0.0","0.0","0.0","1.0","0.0","0.0","0.0","0.0","0","0","0","0","0","0","0","-","-","-","-","-","-","-","-","-","-","-","-","-","-","-","-","-","-"
"1074322232497758209","https://twitter.com/drumato/status/1074322232497758209","特徴量エンジニアリングの知見が欲しい
特徴量エンジニアリングだけで一冊本が出来ていればいいのに","2018-12-16 15:15 +0000","2420.0","34.0","0.014049586776859505","0.0","1.0","9.0","13.0","0.0","0.0","11.0","0.0","0","0","0","0","0","0","0","-","-","-","-","-","-","-","-","-","-","-","-","-","-","-","-","-","-"
"1074061563982565376","https://twitter.com/drumato/status/1074061563982565376","#ふつうのLinuxプログラミング の7章がそれなり難しいので簡単なコードで解説
#C言語
#はてなブログ
ふつうのLinuxプログラミング 7章の解説! - Drumatoの独り言
https://t.co/EQi8zDXe3S","2018-12-15 22:00 +0000","352.0","14.0","0.03977272727272727","0.0","0.0","3.0","7.0","4.0","0.0","0.0","0.0","0","0","0","0","0","0","0","-","-","-","-","-","-","-","-","-","-","-","-","-","-","-","-","-","-"
"1073765108159938561","https://twitter.com/drumato/status/1073765108159938561","虎の穴ラボの開発室ブログ見てきたけど凄い楽しそうだし
技術のこと毎日議論出来るの憧れ","2018-12-15 02:22 +0000","381.0","0.0","0.0","0.0","0.0","0.0","0.0","0.0","0.0","0.0","0.0","0","0","0","0","0","0","0","-","-","-","-","-","-","-","-","-","-","-","-","-","-","-","-","-","-"
"1073588578427387906","https://twitter.com/drumato/status/1073588578427387906","#ふつうのLinuxプログラミング の6章演習問題の記事を投稿しました!
Fishが凄い｡
#C言語
#はてなブログ
ふつうのLinuxプログラミング 6章の演習問題! - Drumatoの独り言
https://t.co/B4vMs0PWvi","2018-12-14 14:40 +0000","380.0","10.0","0.02631578947368421","1.0","0.0","2.0","0.0","7.0","0.0","0.0","0.0","0","0","0","0","0","0","0","-","-","-","-","-","-","-","-","-","-","-","-","-","-","-","-","-","-"
"1073517247048499200","https://twitter.com/drumato/status/1073517247048499200","Malware detection…","2018-12-14 09:57 +0000","330.0","5.0","0.015151515151515152","0.0","0.0","0.0","5.0","0.0","0.0","0.0","0.0","0","0","0","0","0","0","0","-","-","-","-","-","-","-","-","-","-","-","-","-","-","-","-","-","-"
"1073427750873051142","https://twitter.com/drumato/status/1073427750873051142","Microsoft Malware Predictionに参加しました!
皆さん一緒に頑張りましょう!
Team勧誘も歓迎です!","2018-12-14 04:01 +0000","308.0","5.0","0.016233766233766232","0.0","0.0","1.0","4.0","0.0","0.0","0.0","0.0","0","0","0","0","0","0","0","-","-","-","-","-","-","-","-","-","-","-","-","-","-","-","-","-","-"
"1073397312548831232","https://twitter.com/drumato/status/1073397312548831232","#ふつうのLinuxプログラミング の5章の演習問題を解きました!catコマンドを実装するやつ｡
Pythonとかやってると新鮮で楽しい
#C言語
#はてなブログ
ふつうのLinuxプログラミング 5章の演習問題! - Druma…
https://t.co/hnKPfDt6DC","2018-12-14 02:00 +0000","390.0","9.0","0.023076923076923078","1.0","0.0","2.0","0.0","4.0","2.0","0.0","0.0","0","0","0","0","0","0","0","-","-","-","-","-","-","-","-","-","-","-","-","-","-","-","-","-","-"
"1073205922585956352","https://twitter.com/drumato/status/1073205922585956352","アニメアイコン
バケモノ競プロ勢説が分かりすぎてつらい https://t.co/arh79VgEPk","2018-12-13 13:20 +0000","318.0","1.0","0.0031446540880503146","0.0","0.0","0.0","1.0","0.0","0.0","0.0","0.0","0","0","0","0","0","0","0","-","-","-","-","-","-","-","-","-","-","-","-","-","-","-","-","-","-"
"1073173605196779521","https://twitter.com/drumato/status/1073173605196779521","次のブログネタは前日の気象情報から
今日の天気を予測するモデルを構築する記事になりそうです。
ただ特徴量数とデータ量的に
晴れ曇り雨の3クラス識別とかになりそう。","2018-12-13 11:11 +0000","415.0","4.0","0.00963855421686747","0.0","0.0","1.0","3.0","0.0","0.0","0.0","0.0","0","0","0","0","0","0","0","-","-","-","-","-","-","-","-","-","-","-","-","-","-","-","-","-","-"
"1072724704102772737","https://twitter.com/drumato/status/1072724704102772737","@wabisuke2718 さん､
どうやらブログのパーツで､変数名がそのまま表示されてしまっているようです…? https://t.co/lxZAsegT1g","2018-12-12 05:27 +0000","69.0","4.0","0.057971014492753624","0.0","1.0","0.0","0.0","2.0","0.0","0.0","0.0","0","0","0","0","0","1","1","-","-","-","-","-","-","-","-","-","-","-","-","-","-","-","-","-","-"
"1072498848621318146","https://twitter.com/drumato/status/1072498848621318146","やっとDockerとKubernetesの勉強始めた…｡
最低限自由に使えるようになって､オレオレDockerfile作りたい","2018-12-11 14:30 +0000","523.0","6.0","0.011472275334608031","0.0","0.0","2.0","4.0","0.0","0.0","0.0","0.0","0","0","0","0","0","0","0","-","-","-","-","-","-","-","-","-","-","-","-","-","-","-","-","-","-"
"1072132088243965953","https://twitter.com/drumato/status/1072132088243965953","学校では線形代数と螺旋本をゴリゴリやりつつ、
家では同じく線形代数とその他本を進める感じにしよう
凄い密度で進めないとなあなあになっちゃうからこの一ヶ月は勝負だ来月もっとやばいけど

そして線形代数以外の全ての本は記事にあげるなりプライベートリポジトリまとめるなりアウトプットしよう","2018-12-10 14:13 +0000","281.0","4.0","0.014234875444839857","0.0","0.0","0.0","4.0","0.0","0.0","0.0","0.0","0","0","0","0","0","0","0","-","-","-","-","-","-","-","-","-","-","-","-","-","-","-","-","-","-"
"1072130236580487168","https://twitter.com/drumato/status/1072130236580487168","Eloコンペ､ここまで最新のカーネル延々追ってきて
勉強になること凄い多かったから参加したのは凄い有意義だったけど
ここから銅圏狙ってスコア上げるにはKaggleにより多くの時間取らないと行けなそうだなぁ

今回は上位を狙うというよりかはインプットメインに済ませておこう｡","2018-12-10 14:05 +0000","614.0","17.0","0.02768729641693811","0.0","0.0","5.0","10.0","0.0","0.0","2.0","0.0","0","0","0","0","0","0","0","-","-","-","-","-","-","-","-","-","-","-","-","-","-","-","-","-","-"
"1072114776845647872","https://twitter.com/drumato/status/1072114776845647872","vimtutorやったけどやっぱVim最高ってなった","2018-12-10 13:04 +0000","240.0","2.0","0.008333333333333333","0.0","0.0","1.0","1.0","0.0","0.0","0.0","0.0","0","0","0","0","0","0","0","-","-","-","-","-","-","-","-","-","-","-","-","-","-","-","-","-","-"
"1072072014880370689","https://twitter.com/drumato/status/1072072014880370689","線形代数とか確率統計とかちゃんと勉強することにした｡
機械学習系の専門書に付随した内容じゃなくて､
ちゃんと数学として体系立てられた本を手にとった｡

ちゃんとこういうのやらないと機械学習の本買っても理解度10%とかしかなさそう｡
今まで何をやっていたんだろうってなりそう","2018-12-10 10:14 +0000","1178.0","48.0","0.04074702886247878","0.0","0.0","16.0","29.0","0.0","0.0","3.0","0.0","0","0","0","0","0","0","0","-","-","-","-","-","-","-","-","-","-","-","-","-","-","-","-","-","-"
"1072026091030597632","https://twitter.com/drumato/status/1072026091030597632","Ruby2.6でラムダ式（だけじゃないかもしれないけど）が出来るようになった…だと…

かっこよすぎる","2018-12-10 07:11 +0000","257.0","0.0","0.0","0.0","0.0","0.0","0.0","0.0","0.0","0.0","0.0","0","0","0","0","0","0","0","-","-","-","-","-","-","-","-","-","-","-","-","-","-","-","-","-","-"
"1071747705725104129","https://twitter.com/drumato/status/1071747705725104129","@edash18 PRML読んでるんですね､凄いです…!
お互い頑張りましょう!(edashさんすぐに上位行きそう)","2018-12-09 12:45 +0000","103.0","6.0","0.05825242718446602","0.0","1.0","0.0","5.0","0.0","0.0","0.0","0.0","0","0","0","0","0","0","0","-","-","-","-","-","-","-","-","-","-","-","-","-","-","-","-","-","-"
"1071740159001944064","https://twitter.com/drumato/status/1071740159001944064","ありがたや…ありがたや…感謝… https://t.co/IFczkvODD4","2018-12-09 12:15 +0000","377.0","2.0","0.005305039787798408","0.0","0.0","1.0","1.0","0.0","0.0","0.0","0.0","0","0","0","0","0","0","0","-","-","-","-","-","-","-","-","-","-","-","-","-","-","-","-","-","-"
"1071418031761281024","https://twitter.com/drumato/status/1071418031761281024","ABC115の自分の回答と公式の解説に対する所感を書きました｡
C問題解けてよかった!二回目のコンテスト参加でしたが成長出来ました｡
#ABC #はてなブログ
ABC 115に参加しました｡ - Drumatoの独り言
https://t.co/5ZC4QveB0A","2018-12-08 14:55 +0000","301.0","15.0","0.04983388704318937","0.0","0.0","1.0","0.0","12.0","1.0","1.0","0.0","0","0","0","0","0","0","0","-","-","-","-","-","-","-","-","-","-","-","-","-","-","-","-","-","-"
"1071407285237297152","https://twitter.com/drumato/status/1071407285237297152","今回のABC､
D問題Pythonで解こうとしたのにうまく行かなくて､
参考にしようとnadareさんのコード読んだら次元が違いすぎて
競プロ(その他諸々)の実力に天と地の差があることを感じた｡","2018-12-08 14:12 +0000","702.0","29.0","0.04131054131054131","0.0","0.0","5.0","18.0","0.0","0.0","6.0","0.0","0","0","0","0","0","0","0","-","-","-","-","-","-","-","-","-","-","-","-","-","-","-","-","-","-"
"1071368280730853376","https://twitter.com/drumato/status/1071368280730853376","PyTorchが1.0.0(正式リリース?)されたので､その内容を数行だけ更新しました｡
#PyTorch
#はてなブログ
(第一回)PyTorchの公式ドキュメント翻訳ハンズオン - Drumatoの独り言
https://t.co/NgBBtP16Y7","2018-12-08 11:37 +0000","351.0","7.0","0.019943019943019943","0.0","0.0","4.0","0.0","3.0","0.0","0.0","0.0","0","0","0","0","0","0","0","-","-","-","-","-","-","-","-","-","-","-","-","-","-","-","-","-","-"
"1071162643765878786","https://twitter.com/drumato/status/1071162643765878786","PyTorchの公式ドキュメントを和訳して実践ハンズオンを作りました｡
己のディープラーニングに対する知見が甘かったことを実感したのでMITの本で猛勉強します｡
 #機械学習
(第一回)PyTorchの公式ドキュメント翻訳ハン…
https://t.co/NgBBtP16Y7","2018-12-07 22:00 +0000","759.0","43.0","0.05665349143610013","2.0","0.0","13.0","4.0","24.0","0.0","0.0","0.0","0","0","0","0","0","0","0","-","-","-","-","-","-","-","-","-","-","-","-","-","-","-","-","-","-"
"1071041195793498113","https://twitter.com/drumato/status/1071041195793498113","PyTorchの実践記事を書いていると､自分がディープラーニングに興味を持って機械学習に入ったのにまだ大して知識が無いことに驚かされる｡

今こそもう一度0からディープラーニングを作るか､
MITの本を買うまで我慢するか…悩みどころ｡","2018-12-07 13:58 +0000","339.0","8.0","0.02359882005899705","0.0","0.0","0.0","8.0","0.0","0.0","0.0","0.0","0","0","0","0","0","0","0","-","-","-","-","-","-","-","-","-","-","-","-","-","-","-","-","-","-"
"1071013976945831937","https://twitter.com/drumato/status/1071013976945831937","MLPの画像認識という本めちゃ楽しい","2018-12-07 12:10 +0000","250.0","8.0","0.032","0.0","0.0","0.0","8.0","0.0","0.0","0.0","0.0","0","0","0","0","0","0","0","-","-","-","-","-","-","-","-","-","-","-","-","-","-","-","-","-","-"
"1070635843398787072","https://twitter.com/drumato/status/1070635843398787072","PyTorchの公式ドキュメント和訳+MNISTに対して実際に学習する記事を書いています…","2018-12-06 11:07 +0000","275.0","2.0","0.007272727272727273","0.0","0.0","1.0","1.0","0.0","0.0","0.0","0.0","0","0","0","0","0","0","0","-","-","-","-","-","-","-","-","-","-","-","-","-","-","-","-","-","-"
"1070588660494458880","https://twitter.com/drumato/status/1070588660494458880","XGBoostがLightGBMに比べて学習速度遅すぎないか?","2018-12-06 08:00 +0000","335.0","2.0","0.005970149253731343","0.0","0.0","2.0","0.0","0.0","0.0","0.0","0.0","0","0","0","0","0","0","0","-","-","-","-","-","-","-","-","-","-","-","-","-","-","-","-","-","-"
"1070493451962134533","https://twitter.com/drumato/status/1070493451962134533","@tomomoto_LV3 @siero5335 著者さん本人からおすすめ頂いて大変光栄です…｡
勝手ながらとても参考にさせていただいているので紹介させていただきました｡
特徴量エンジニアリングの件ですが､記事を見てくださっている方たちに誤解を与えないよう､@tomomoto_LV3 さんのツイートを記事に貼ってもいいですか?","2018-12-06 01:41 +0000","192.0","4.0","0.020833333333333332","0.0","1.0","2.0","0.0","0.0","0.0","1.0","0.0","0","0","0","0","0","0","0","-","-","-","-","-","-","-","-","-","-","-","-","-","-","-","-","-","-"
"1070483802189783040","https://twitter.com/drumato/status/1070483802189783040","Twitterに君臨する機械学習･データ分析の神たちから
Kaggleの入門記事をいいねされて狂喜乱舞している…｡

もっと技術的な記事を書けるようにがんばります｡","2018-12-06 01:03 +0000","600.0","24.0","0.04","1.0","0.0","3.0","18.0","0.0","0.0","2.0","0.0","0","0","0","0","0","0","0","-","-","-","-","-","-","-","-","-","-","-","-","-","-","-","-","-","-"
"1070309673058746368","https://twitter.com/drumato/status/1070309673058746368","Kaggle Advent Calendar 2018
2日参戦してたんですけどまだまだ実力足りないことを痛感したので参加取り消しました…｡

もっとKaggleに慣れてから参加します!","2018-12-05 13:31 +0000","242.0","4.0","0.01652892561983471","0.0","0.0","0.0","3.0","0.0","0.0","1.0","0.0","0","0","0","0","0","0","0","-","-","-","-","-","-","-","-","-","-","-","-","-","-","-","-","-","-"
"1070123431251701761","https://twitter.com/drumato/status/1070123431251701761","Kaggle Advent Calendar 2018もう一日書こうかな
もっと技術の事書いてマサカリ飛んできまくってほしい","2018-12-05 01:11 +0000","656.0","15.0","0.022865853658536585","0.0","0.0","4.0","8.0","0.0","0.0","3.0","0.0","0","0","0","0","0","0","0","-","-","-","-","-","-","-","-","-","-","-","-","-","-","-","-","-","-"
"1070121612773515265","https://twitter.com/drumato/status/1070121612773515265","@xrppolitical わかります…!
特に機械学習系は大学で専門の研究をしていたり､
数学の基盤ができてる人が多いですよね…

私は本当に何も出来ない状態で機械学習を初めたので､
本記事が苦手意識を持つ人達の助けになるといいのですが…","2018-12-05 01:04 +0000","70.0","11.0","0.15714285714285714","0.0","1.0","1.0","4.0","0.0","0.0","5.0","0.0","0","0","0","0","0","0","0","-","-","-","-","-","-","-","-","-","-","-","-","-","-","-","-","-","-"
"1070075481578340352","https://twitter.com/drumato/status/1070075481578340352","Kaggle入門したい人に向けた勉強目的でのアプローチ法とその詳細の記事を書きました!
#Kaggle
#KaggleAdVentCalendar2018
#はてなブログ
Kaggleに入門したい人におすすめするアプローチ法…
https://t.co/SjuHnDFXQS","2018-12-04 22:00 +0000","20162.0","924.0","0.0458287868267037","50.0","0.0","237.0","98.0","436.0","11.0","91.0","0.0","0","0","1","0","0","0","0","-","-","-","-","-","-","-","-","-","-","-","-","-","-","-","-","-","-"
"1069608434629206016","https://twitter.com/drumato/status/1069608434629206016","Kaggle Advent Calender 2018の記事書き終わった｡
ばんくし氏主催のXonshカレンダーのときのように､
未来から来たとか言われないようにちゃんと予約投稿できました｡","2018-12-03 15:04 +0000","4019.0","13.0","0.0032346354814630504","1.0","0.0","6.0","4.0","0.0","0.0","2.0","0.0","0","0","0","0","0","0","0","-","-","-","-","-","-","-","-","-","-","-","-","-","-","-","-","-","-"
"1069557097086349324","https://twitter.com/drumato/status/1069557097086349324","kaggle Advent Calendar 2018 5日目に参加しました!
 #Qiita https://t.co/l7G2PsmAWo","2018-12-03 11:40 +0000","316.0","13.0","0.04113924050632911","0.0","0.0","3.0","0.0","10.0","0.0","0.0","0.0","0","0","0","0","0","0","0","-","-","-","-","-","-","-","-","-","-","-","-","-","-","-","-","-","-"
"1069240346905784323","https://twitter.com/drumato/status/1069240346905784323","初参加でとてもいい経験が出来ました!
※利用規約を読んで､コンテスト終了後を確認した後コードを記載しています｡
#AtCoder
#競プロ #はてなブログ
ABC 114に参加しました｡ - Drumatoの独り言
https://t.co/BjFD1BfIpr","2018-12-02 14:42 +0000","525.0","20.0","0.0380952380952381","1.0","0.0","1.0","0.0","15.0","0.0","3.0","0.0","0","0","0","0","0","0","0","-","-","-","-","-","-","-","-","-","-","-","-","-","-","-","-","-","-"
"1069199432288165888","https://twitter.com/drumato/status/1069199432288165888","ABC参戦","2018-12-02 11:59 +0000","215.0","1.0","0.004651162790697674","0.0","0.0","0.0","1.0","0.0","0.0","0.0","0.0","0","0","0","0","0","0","0","-","-","-","-","-","-","-","-","-","-","-","-","-","-","-","-","-","-"
"1069075050014269440","https://twitter.com/drumato/status/1069075050014269440","Eloコンペ取り組み始めて一週間経ったかどうかだけど既にめちゃくちゃ大事なことを学んだ

実践力が全くもって足りん

ガンガンモデルの実装するような本を勉強しようと思った
実践力を理論が後追いするような勉強法が一番良いのかもしれない","2018-12-02 03:45 +0000","399.0","9.0","0.022556390977443608","0.0","0.0","1.0","6.0","0.0","0.0","2.0","0.0","0","0","0","0","0","0","0","-","-","-","-","-","-","-","-","-","-","-","-","-","-","-","-","-","-"
"1069074524480524289","https://twitter.com/drumato/status/1069074524480524289","あ、Eloコンペ特徴量探す糸口が見えたかも
というところでバイトの時間になってしまった","2018-12-02 03:43 +0000","285.0","1.0","0.0035087719298245615","0.0","0.0","0.0","1.0","0.0","0.0","0.0","0.0","0","0","0","0","0","0","0","-","-","-","-","-","-","-","-","-","-","-","-","-","-","-","-","-","-"
"1069028766465183744","https://twitter.com/drumato/status/1069028766465183744","今日ABC初参加します!がんばります!
過去問10個ぐらい解いただけで､どれだけついていけるのか｡
https://t.co/eRbVsBWMV6","2018-12-02 00:41 +0000","205.0","4.0","0.01951219512195122","0.0","0.0","0.0","2.0","2.0","0.0","0.0","0.0","0","0","0","0","0","0","0","-","-","-","-","-","-","-","-","-","-","-","-","-","-","-","-","-","-"
"1068896717523697665","https://twitter.com/drumato/status/1068896717523697665","ご飯食べて帰ってきたらエゴAPIのAppendix機能が500エラー返してた…

何事かわからないので明日の午前改善します

･API改善
･カーネルリーティング&amp;理解
の為に午前中使います","2018-12-01 15:56 +0000","186.0","2.0","0.010752688172043012","0.0","0.0","0.0","2.0","0.0","0.0","0.0","0.0","0","0","0","0","0","0","0","-","-","-","-","-","-","-","-","-","-","-","-","-","-","-","-","-","-"
"1068809567193059328","https://twitter.com/drumato/status/1068809567193059328","これはずるい https://t.co/EwrGPDDN89","2018-12-01 10:10 +0000","230.0","0.0","0.0","0.0","0.0","0.0","0.0","0.0","0.0","0.0","0.0","0","0","0","0","0","0","0","-","-","-","-","-","-","-","-","-","-","-","-","-","-","-","-","-","-"
"1068805547015647232","https://twitter.com/drumato/status/1068805547015647232","@odgrso 純血のブラックハッカーですよね…｡","2018-12-01 09:54 +0000","46.0","3.0","0.06521739130434782","0.0","0.0","0.0","0.0","0.0","0.0","3.0","0.0","0","0","0","0","0","0","0","-","-","-","-","-","-","-","-","-","-","-","-","-","-","-","-","-","-"
"1068798558462066690","https://twitter.com/drumato/status/1068798558462066690","16GBのUSBメモリ二個衝動買いした
今2000円しないで買えるからびっくりしたわ

貸してるデスクトップ返ってきたら即Ubuntu砲でWindows ぶっとばすからそのブート用と、

単純に便利だから一個持ち歩いておこう","2018-12-01 09:26 +0000","228.0","3.0","0.013157894736842105","0.0","0.0","1.0","2.0","0.0","0.0","0.0","0.0","0","0","0","0","0","0","0","-","-","-","-","-","-","-","-","-","-","-","-","-","-","-","-","-","-"
"1068713090328326145","https://twitter.com/drumato/status/1068713090328326145","初めてRを見た時⇨ちんぷんかんぷん
ちょっと見慣れた時⇨パイプかっこよくね？
最強のカーネルを読む今⇨すみません何もわかりません

１つずつ実行しながら噛み砕く事しかできない

RをPythonで自力翻訳することでより勉強になるかも知れない
バイト終わったらやろう","2018-12-01 03:47 +0000","365.0","11.0","0.030136986301369864","0.0","0.0","4.0","5.0","0.0","0.0","2.0","0.0","0","0","0","0","0","0","0","-","-","-","-","-","-","-","-","-","-","-","-","-","-","-","-","-","-"
"1068685111552438272","https://twitter.com/drumato/status/1068685111552438272","本コンペ､KernelのFork､自分でよく考えてちょっと付け加えてSubmitする
というのを繰り返して20位まで上がったけど
一度しっかりKernel読み返して勉強しないと身になった感じがしない…

よっしゃそうしよう結果より勉強することが大事だ","2018-12-01 01:56 +0000","245.0","3.0","0.012244897959183673","0.0","0.0","1.0","2.0","0.0","0.0","0.0","0.0","0","0","0","0","0","0","0","-","-","-","-","-","-","-","-","-","-","-","-","-","-","-","-","-","-"
